<svg xmlns="http://www.w3.org/2000/svg" width="9" height="16">
    <path fill="#4a90e2" fill-rule="evenodd" d="M8.7 14.3c.4.4.4 1 0 1.4-.4.4-1 .4-1.4 0l-7-7c-.4-.4-.4-1 0-1.4l7-7c.4-.4 1-.4 1.4 0 .4.4.4 1 0 1.4L2.4 8l6.3 6.3z"/>
</svg>
