<svg xmlns="http://www.w3.org/2000/svg" width="429" height="107" viewBox="0 0 429 107">
    <g fill="#F5F7FA" fill-rule="evenodd">
        <path d="M167.26 90.756s18.626-4.71 17.68-25.641c-.718-15.873-11.414-24.59-7.854-34.824 1.654-4.756 5.922-6.38 10.53-6.034-.082-1.13.176-2.233.176-2.233 2.224.735 3.904 2.339 4.756 3.295 3.64 1.278 6.985 3.548 8.885 6.231 0 0-.143-5.353-6.55-9.919-3.663-2.61-19.505-8.975-10.678-21.099 0 0-10.25 5.196-5.838 19.681 0 0-13.24.791-11.248 18.11 1.994 17.319 18.786 37.59.142 52.433zm12.983-84.169c-.084.933-.04 1.857.13 2.769 1.146 6.125 7.736 9.965 11.674 12.259.873.509 1.626.947 2.097 1.284 1.5 1.07 2.622 2.173 3.46 3.22a22.139 22.139 0 0 0-2.322-1.265 17.695 17.695 0 0 0-2.751-2.4c-.472-.337-1.225-.776-2.098-1.283-3.72-2.168-11.244-5.133-11.073-11.144.081-1.345.373-2.5.883-3.44zm-6.044 22.717c1.566-4.503 5.287-7.001 10.485-7.046 0 0 .906.055 1.614.445-5.198.045-8.918 2.543-10.486 7.046-2.107 6.062.293 11.658 2.833 17.583 2.161 5.037 4.611 10.75 4.932 17.859.52 11.486-5.162 17.755-10.026 20.995a21.443 21.443 0 0 0 1.813-3.225c3.736-3.658 6.999-9.395 6.599-18.217-.32-7.108-2.77-12.82-4.932-17.86-2.54-5.923-4.94-11.517-2.832-17.58z"/>
        <path d="M192.1 32.745c8.215.283 12.324 7.097 12.324 7.097-4.427-15.045-24.643-16.662-24.4-5.888.244 10.774 12.579 20.787 10.82 37.176-2.508 23.39-26.472 35.153-26.472 35.153 45.178-15.53 40.621-41.981 32.093-55.083-7.031-10.801-12.58-18.74-4.365-18.455z"/>
        <path d="M224.339 78.66c-2.71 0-5.25-.428-7.618-1.282-2.368-.855-4.431-2.1-6.189-3.736-1.757-1.66-3.15-3.698-4.175-6.116-1-2.441-1.501-5.224-1.501-8.35 0-2.758.464-5.31 1.391-7.653.928-2.368 2.21-4.42 3.845-6.153a17.828 17.828 0 0 1 5.714-4.064c2.197-.977 4.565-1.465 7.104-1.465 2.515 0 4.846.44 6.995 1.318a15.32 15.32 0 0 1 5.566 3.772c1.587 1.636 2.832 3.674 3.736 6.116.928 2.417 1.428 5.176 1.501 8.277a951.992 951.992 0 0 0-16.882-.148c-2.124 0-4.2.013-6.226.037-2.002.025-3.808.062-5.42.11.147 2.54.537 4.834 1.172 6.885.66 2.051 1.55 3.808 2.674 5.274a11.851 11.851 0 0 0 4.137 3.332c1.636.782 3.48 1.172 5.53 1.172 1.416 0 2.747-.159 3.992-.476 1.27-.342 2.417-.806 3.442-1.392a13.634 13.634 0 0 0 2.747-2.05 13.708 13.708 0 0 0 2.051-2.6l.44.219-2.711 6.518c-1.318.684-2.893 1.27-4.724 1.758-1.831.465-4.029.696-6.591.696m-4.871-22.339h7.324c2.466-.024 4.7-.073 6.702-.147-.22-2.123-.635-4.028-1.246-5.712-.61-1.685-1.391-3.113-2.343-4.285-.952-1.172-2.076-2.075-3.37-2.71-1.293-.634-2.721-.952-4.284-.952-1.416 0-2.722.318-3.918.952-1.172.61-2.198 1.502-3.077 2.674s-1.587 2.612-2.124 4.32c-.537 1.685-.854 3.614-.952 5.787a78.58 78.58 0 0 0 3.479.074h3.809"/>
        <path d="M224.339 78.66c-2.71 0-5.25-.428-7.618-1.282-2.368-.855-4.431-2.1-6.189-3.736-1.757-1.66-3.15-3.698-4.175-6.116-1-2.441-1.501-5.224-1.501-8.35 0-2.758.464-5.31 1.391-7.653.928-2.368 2.21-4.42 3.845-6.153a17.828 17.828 0 0 1 5.714-4.064c2.197-.977 4.565-1.465 7.104-1.465 2.515 0 4.846.44 6.995 1.318a15.32 15.32 0 0 1 5.566 3.772c1.587 1.636 2.832 3.674 3.736 6.116.928 2.417 1.428 5.176 1.501 8.277a951.992 951.992 0 0 0-16.882-.148c-2.124 0-4.2.013-6.226.037-2.002.025-3.808.062-5.42.11.147 2.54.537 4.834 1.172 6.885.66 2.051 1.55 3.808 2.674 5.274a11.851 11.851 0 0 0 4.137 3.332c1.636.782 3.48 1.172 5.53 1.172 1.416 0 2.747-.159 3.992-.476 1.27-.342 2.417-.806 3.442-1.392a13.634 13.634 0 0 0 2.747-2.05 13.708 13.708 0 0 0 2.051-2.6l.44.219-2.711 6.518c-1.318.684-2.893 1.27-4.724 1.758-1.831.465-4.029.696-6.591.696m-4.871-22.339h7.324c2.466-.024 4.7-.073 6.702-.147-.22-2.123-.635-4.028-1.246-5.712-.61-1.685-1.391-3.113-2.343-4.285-.952-1.172-2.076-2.075-3.37-2.71-1.293-.634-2.721-.952-4.284-.952-1.416 0-2.722.318-3.918.952-1.172.61-2.198 1.502-3.077 2.674s-1.587 2.612-2.124 4.32c-.537 1.685-.854 3.614-.952 5.787a78.58 78.58 0 0 0 3.479.074h3.809M248.655 54.819c0-2.075-.036-3.882-.11-5.42a74.273 74.273 0 0 0-.22-4.029c-.073-1.122-.183-2.062-.329-2.82a16.776 16.776 0 0 0-.404-1.904V40.5h8.46v.146a13.84 13.84 0 0 0-.513 2.051c-.122.806-.22 1.843-.293 3.113a66.812 66.812 0 0 1 2.82-2.233 24.995 24.995 0 0 1 3.003-1.941 18.218 18.218 0 0 1 3.113-1.356 10.567 10.567 0 0 1 3.222-.513c.66 0 1.233.037 1.722.11a6.63 6.63 0 0 1 1.318.257c.391.097.745.22 1.062.366.318.122.623.245.916.366l-1.795 6.995-.622-.147c-.293-1.074-.842-1.928-1.648-2.563-.806-.66-1.904-.989-3.296-.989-.757 0-1.55.135-2.38.403-.83.269-1.672.647-2.527 1.136a21.596 21.596 0 0 0-2.564 1.647 37.798 37.798 0 0 0-2.49 1.941 33.708 33.708 0 0 0-.073 2.307v12.085c0 2.075.024 3.894.073 5.457a74.14 74.14 0 0 0 .22 3.991c.097 1.123.208 2.064.33 2.82.121.757.255 1.392.403 1.905V78h-8.46v-.146c.147-.513.28-1.148.403-1.904.146-.757.256-1.698.33-2.82a74.14 74.14 0 0 0 .219-3.992c.074-1.563.11-3.382.11-5.457v-8.862"/>
        <path d="M248.655 54.819c0-2.075-.036-3.882-.11-5.42a74.273 74.273 0 0 0-.22-4.029c-.073-1.122-.183-2.062-.329-2.82a16.776 16.776 0 0 0-.404-1.904V40.5h8.46v.146a13.84 13.84 0 0 0-.513 2.051c-.122.806-.22 1.843-.293 3.113a66.812 66.812 0 0 1 2.82-2.233 24.995 24.995 0 0 1 3.003-1.941 18.218 18.218 0 0 1 3.113-1.356 10.567 10.567 0 0 1 3.222-.513c.66 0 1.233.037 1.722.11a6.63 6.63 0 0 1 1.318.257c.391.097.745.22 1.062.366.318.122.623.245.916.366l-1.795 6.995-.622-.147c-.293-1.074-.842-1.928-1.648-2.563-.806-.66-1.904-.989-3.296-.989-.757 0-1.55.135-2.38.403-.83.269-1.672.647-2.527 1.136a21.596 21.596 0 0 0-2.564 1.647 37.798 37.798 0 0 0-2.49 1.941 33.708 33.708 0 0 0-.073 2.307v12.085c0 2.075.024 3.894.073 5.457a74.14 74.14 0 0 0 .22 3.991c.097 1.123.208 2.064.33 2.82.121.757.255 1.392.403 1.905V78h-8.46v-.146c.147-.513.28-1.148.403-1.904.146-.757.256-1.698.33-2.82a74.14 74.14 0 0 0 .219-3.992c.074-1.563.11-3.382.11-5.457v-8.862"/>
        <path d="M281.54 40.5v.146a2.133 2.133 0 0 0-.109.55 6.577 6.577 0 0 0-.037.66c0 .756.11 1.598.33 2.526.22.903.61 2.038 1.172 3.406l8.752 20.837 8.862-20.545c.366-.903.757-1.891 1.173-2.966a8.98 8.98 0 0 0 .622-3.259c0-.317-.025-.573-.074-.77-.048-.219-.097-.365-.146-.439V40.5h6.592v.146c-.44.465-1.001 1.295-1.685 2.491-.659 1.172-1.367 2.649-2.124 4.431l-13.513 30.945h-2.16L276.67 49.362c-.44-1.074-.916-2.1-1.428-3.076a37.097 37.097 0 0 0-1.429-2.674 30.7 30.7 0 0 0-1.171-1.94c-.342-.537-.574-.879-.696-1.026V40.5h9.594"/>
        <path d="M281.54 40.5v.146a2.133 2.133 0 0 0-.109.55 6.577 6.577 0 0 0-.037.66c0 .756.11 1.598.33 2.526.22.903.61 2.038 1.172 3.406l8.752 20.837 8.862-20.545c.366-.903.757-1.891 1.173-2.966a8.98 8.98 0 0 0 .622-3.259c0-.317-.025-.573-.074-.77-.048-.219-.097-.365-.146-.439V40.5h6.592v.146c-.44.465-1.001 1.295-1.685 2.491-.659 1.172-1.367 2.649-2.124 4.431l-13.513 30.945h-2.16L276.67 49.362c-.44-1.074-.916-2.1-1.428-3.076a37.097 37.097 0 0 0-1.429-2.674 30.7 30.7 0 0 0-1.171-1.94c-.342-.537-.574-.879-.696-1.026V40.5h9.594M314.06 54.819c0-2.075-.036-3.882-.11-5.42a74.273 74.273 0 0 0-.22-4.029c-.073-1.122-.183-2.062-.329-2.82a16.776 16.776 0 0 0-.403-1.904V40.5h8.46v.146a16.63 16.63 0 0 0-.403 1.904 39.736 39.736 0 0 0-.33 2.82 74.273 74.273 0 0 0-.22 4.029 173.873 173.873 0 0 0-.073 5.42v8.862c0 2.075.024 3.894.073 5.457a74.14 74.14 0 0 0 .22 3.991c.097 1.123.208 2.064.33 2.82.121.757.256 1.392.403 1.905V78h-8.46v-.146c.147-.513.281-1.148.403-1.904.147-.757.256-1.698.33-2.82a74.14 74.14 0 0 0 .22-3.992c.073-1.563.109-3.382.109-5.457v-8.862m-.769-25.415c0-.537.098-1.038.293-1.502.22-.488.5-.903.842-1.245a3.48 3.48 0 0 1 1.209-.842 3.805 3.805 0 0 1 1.575-.33c.56 0 1.074.11 1.537.33.488.195.904.476 1.246.842.366.342.647.757.842 1.245.22.464.33.965.33 1.502 0 1.123-.379 2.063-1.136 2.82-.757.757-1.697 1.135-2.82 1.135a4.207 4.207 0 0 1-1.574-.293 4.28 4.28 0 0 1-1.209-.842 4.86 4.86 0 0 1-.842-1.245 4.193 4.193 0 0 1-.293-1.575"/>
        <path d="M314.06 54.819c0-2.075-.036-3.882-.11-5.42a74.273 74.273 0 0 0-.22-4.029c-.073-1.122-.183-2.062-.329-2.82a16.776 16.776 0 0 0-.403-1.904V40.5h8.46v.146a16.63 16.63 0 0 0-.403 1.904 39.736 39.736 0 0 0-.33 2.82 74.273 74.273 0 0 0-.22 4.029 173.873 173.873 0 0 0-.073 5.42v8.862c0 2.075.024 3.894.073 5.457a74.14 74.14 0 0 0 .22 3.991c.097 1.123.208 2.064.33 2.82.121.757.256 1.392.403 1.905V78h-8.46v-.146c.147-.513.281-1.148.403-1.904.147-.757.256-1.698.33-2.82a74.14 74.14 0 0 0 .22-3.992c.073-1.563.109-3.382.109-5.457v-8.862m-.769-25.415c0-.537.098-1.038.293-1.502.22-.488.5-.903.842-1.245a3.48 3.48 0 0 1 1.209-.842 3.805 3.805 0 0 1 1.575-.33c.56 0 1.074.11 1.537.33.488.195.904.476 1.246.842.366.342.647.757.842 1.245.22.464.33.965.33 1.502 0 1.123-.379 2.063-1.136 2.82-.757.757-1.697 1.135-2.82 1.135a4.207 4.207 0 0 1-1.574-.293 4.28 4.28 0 0 1-1.209-.842 4.86 4.86 0 0 1-.842-1.245 4.193 4.193 0 0 1-.293-1.575M362.436 70.2l-2.71 6.518c-.659.293-1.416.562-2.27.806a28.53 28.53 0 0 1-2.673.622c-.904.171-1.82.293-2.747.367-.928.097-1.807.146-2.636.146-2.954 0-5.689-.427-8.204-1.282-2.49-.878-4.65-2.148-6.482-3.808-1.806-1.66-3.222-3.699-4.248-6.115-1.025-2.418-1.538-5.177-1.538-8.277 0-2.759.526-5.31 1.575-7.654a18.907 18.907 0 0 1 4.43-6.153c1.906-1.733 4.14-3.088 6.703-4.064 2.563-.977 5.346-1.465 8.35-1.465 1.367 0 2.832.122 4.394.366 1.563.22 2.954.513 4.175.879l2.6 6.226-.44.256a11.046 11.046 0 0 0-2.197-2.051 12.984 12.984 0 0 0-2.783-1.611 16.742 16.742 0 0 0-3.186-1.026 16.141 16.141 0 0 0-3.442-.366c-1.905 0-3.638.342-5.201 1.026a11.046 11.046 0 0 0-4.028 2.892c-1.123 1.27-2.002 2.832-2.637 4.688-.61 1.832-.915 3.919-.915 6.263 0 2.636.293 5.09.879 7.36.61 2.271 1.501 4.248 2.673 5.933a12.989 12.989 0 0 0 4.468 3.918c1.806.928 3.918 1.392 6.336 1.392 1.122 0 2.233-.135 3.332-.403a14.731 14.731 0 0 0 3.149-1.209 14.462 14.462 0 0 0 2.746-1.904 10.673 10.673 0 0 0 2.088-2.49l.44.22"/>
        <path d="M362.436 70.2l-2.71 6.518c-.659.293-1.416.562-2.27.806a28.53 28.53 0 0 1-2.673.622c-.904.171-1.82.293-2.747.367-.928.097-1.807.146-2.636.146-2.954 0-5.689-.427-8.204-1.282-2.49-.878-4.65-2.148-6.482-3.808-1.806-1.66-3.222-3.699-4.248-6.115-1.025-2.418-1.538-5.177-1.538-8.277 0-2.759.526-5.31 1.575-7.654a18.907 18.907 0 0 1 4.43-6.153c1.906-1.733 4.14-3.088 6.703-4.064 2.563-.977 5.346-1.465 8.35-1.465 1.367 0 2.832.122 4.394.366 1.563.22 2.954.513 4.175.879l2.6 6.226-.44.256a11.046 11.046 0 0 0-2.197-2.051 12.984 12.984 0 0 0-2.783-1.611 16.742 16.742 0 0 0-3.186-1.026 16.141 16.141 0 0 0-3.442-.366c-1.905 0-3.638.342-5.201 1.026a11.046 11.046 0 0 0-4.028 2.892c-1.123 1.27-2.002 2.832-2.637 4.688-.61 1.832-.915 3.919-.915 6.263 0 2.636.293 5.09.879 7.36.61 2.271 1.501 4.248 2.673 5.933a12.989 12.989 0 0 0 4.468 3.918c1.806.928 3.918 1.392 6.336 1.392 1.122 0 2.233-.135 3.332-.403a14.731 14.731 0 0 0 3.149-1.209 14.462 14.462 0 0 0 2.746-1.904 10.673 10.673 0 0 0 2.088-2.49l.44.22M386.35 78.66c-2.71 0-5.25-.428-7.617-1.282-2.368-.855-4.431-2.1-6.189-3.736-1.758-1.66-3.15-3.698-4.174-6.116-1.002-2.441-1.502-5.224-1.502-8.35 0-2.758.464-5.31 1.391-7.653.928-2.368 2.21-4.42 3.845-6.153a17.833 17.833 0 0 1 5.713-4.064c2.198-.977 4.565-1.465 7.105-1.465 2.515 0 4.846.44 6.994 1.318a15.32 15.32 0 0 1 5.567 3.772c1.587 1.636 2.832 3.674 3.735 6.116.928 2.417 1.429 5.176 1.501 8.277a951.2 951.2 0 0 0-16.881-.148c-2.124 0-4.2.013-6.226.037-2.002.025-3.809.062-5.42.11.147 2.54.537 4.834 1.172 6.885.66 2.051 1.55 3.808 2.673 5.274a11.854 11.854 0 0 0 4.139 3.332c1.635.782 3.478 1.172 5.53 1.172 1.415 0 2.746-.159 3.99-.476 1.27-.342 2.418-.806 3.443-1.392a13.634 13.634 0 0 0 2.747-2.05 13.703 13.703 0 0 0 2.05-2.6l.44.219-2.71 6.518c-1.318.684-2.893 1.27-4.724 1.758-1.831.465-4.029.696-6.592.696m-4.87-22.339h7.324c2.465-.024 4.7-.073 6.701-.147-.22-2.123-.634-4.028-1.245-5.712-.61-1.685-1.391-3.113-2.344-4.285-.952-1.172-2.075-2.075-3.368-2.71-1.294-.634-2.723-.952-4.285-.952-1.416 0-2.723.318-3.919.952-1.171.61-2.197 1.502-3.076 2.674s-1.587 2.612-2.124 4.32c-.537 1.685-.855 3.614-.952 5.787 1.099.049 2.258.074 3.479.074h3.808"/>
        <path d="M386.35 78.66c-2.71 0-5.25-.428-7.617-1.282-2.368-.855-4.431-2.1-6.189-3.736-1.758-1.66-3.15-3.698-4.174-6.116-1.002-2.441-1.502-5.224-1.502-8.35 0-2.758.464-5.31 1.391-7.653.928-2.368 2.21-4.42 3.845-6.153a17.833 17.833 0 0 1 5.713-4.064c2.198-.977 4.565-1.465 7.105-1.465 2.515 0 4.846.44 6.994 1.318a15.32 15.32 0 0 1 5.567 3.772c1.587 1.636 2.832 3.674 3.735 6.116.928 2.417 1.429 5.176 1.501 8.277a951.2 951.2 0 0 0-16.881-.148c-2.124 0-4.2.013-6.226.037-2.002.025-3.809.062-5.42.11.147 2.54.537 4.834 1.172 6.885.66 2.051 1.55 3.808 2.673 5.274a11.854 11.854 0 0 0 4.139 3.332c1.635.782 3.478 1.172 5.53 1.172 1.415 0 2.746-.159 3.99-.476 1.27-.342 2.418-.806 3.443-1.392a13.634 13.634 0 0 0 2.747-2.05 13.703 13.703 0 0 0 2.05-2.6l.44.219-2.71 6.518c-1.318.684-2.893 1.27-4.724 1.758-1.831.465-4.029.696-6.592.696m-4.87-22.339h7.324c2.465-.024 4.7-.073 6.701-.147-.22-2.123-.634-4.028-1.245-5.712-.61-1.685-1.391-3.113-2.344-4.285-.952-1.172-2.075-2.075-3.368-2.71-1.294-.634-2.723-.952-4.285-.952-1.416 0-2.723.318-3.919.952-1.171.61-2.197 1.502-3.076 2.674s-1.587 2.612-2.124 4.32c-.537 1.685-.855 3.614-.952 5.787 1.099.049 2.258.074 3.479.074h3.808M427.219 47.86l-.512.074c-.171-.562-.452-1.16-.842-1.794a7.035 7.035 0 0 0-1.465-1.758c-.587-.537-1.307-.976-2.161-1.319-.83-.366-1.795-.549-2.893-.549a7.02 7.02 0 0 0-2.161.33 5.21 5.21 0 0 0-1.757.988c-.489.416-.88.94-1.173 1.575-.292.635-.44 1.38-.44 2.235 0 1.196.368 2.343 1.1 3.441.756 1.075 1.696 2.149 2.82 3.223a81.842 81.842 0 0 0 3.625 3.186 40.648 40.648 0 0 1 3.662 3.369 17.712 17.712 0 0 1 2.784 3.773 8.46 8.46 0 0 1 1.134 4.284c0 1.245-.22 2.465-.659 3.662a8.78 8.78 0 0 1-2.05 3.15c-.904.927-2.076 1.684-3.517 2.27-1.416.562-3.112.842-5.09.842-1.171 0-2.27-.11-3.295-.329a20.698 20.698 0 0 1-2.784-.806 19.647 19.647 0 0 1-2.27-1.098 36.77 36.77 0 0 1-1.758-1.172l.366-6.958h.586c.245 1.147.61 2.197 1.099 3.149a9.228 9.228 0 0 0 1.795 2.453 8.79 8.79 0 0 0 2.49 1.575c.927.366 1.94.55 3.04.55 1.806 0 3.234-.501 4.284-1.502 1.074-1 1.611-2.307 1.611-3.918a6.167 6.167 0 0 0-1.099-3.552c-.708-1.099-1.61-2.149-2.71-3.15a65.944 65.944 0 0 0-3.551-3.003 39.667 39.667 0 0 1-3.517-3.186 17.533 17.533 0 0 1-2.746-3.735c-.708-1.367-1.062-2.918-1.062-4.651 0-1.416.257-2.71.769-3.882a8.938 8.938 0 0 1 2.197-3.04c.953-.854 2.075-1.513 3.37-1.977 1.294-.464 2.71-.696 4.247-.696 2.027 0 3.711.22 5.055.66 1.367.414 2.404.817 3.112 1.208l.366 6.079"/>
        <path d="M427.219 47.86l-.512.074c-.171-.562-.452-1.16-.842-1.794a7.035 7.035 0 0 0-1.465-1.758c-.587-.537-1.307-.976-2.161-1.319-.83-.366-1.795-.549-2.893-.549a7.02 7.02 0 0 0-2.161.33 5.21 5.21 0 0 0-1.757.988c-.489.416-.88.94-1.173 1.575-.292.635-.44 1.38-.44 2.235 0 1.196.368 2.343 1.1 3.441.756 1.075 1.696 2.149 2.82 3.223a81.842 81.842 0 0 0 3.625 3.186 40.648 40.648 0 0 1 3.662 3.369 17.712 17.712 0 0 1 2.784 3.773 8.46 8.46 0 0 1 1.134 4.284c0 1.245-.22 2.465-.659 3.662a8.78 8.78 0 0 1-2.05 3.15c-.904.927-2.076 1.684-3.517 2.27-1.416.562-3.112.842-5.09.842-1.171 0-2.27-.11-3.295-.329a20.698 20.698 0 0 1-2.784-.806 19.647 19.647 0 0 1-2.27-1.098 36.77 36.77 0 0 1-1.758-1.172l.366-6.958h.586c.245 1.147.61 2.197 1.099 3.149a9.228 9.228 0 0 0 1.795 2.453 8.79 8.79 0 0 0 2.49 1.575c.927.366 1.94.55 3.04.55 1.806 0 3.234-.501 4.284-1.502 1.074-1 1.611-2.307 1.611-3.918a6.167 6.167 0 0 0-1.099-3.552c-.708-1.099-1.61-2.149-2.71-3.15a65.944 65.944 0 0 0-3.551-3.003 39.667 39.667 0 0 1-3.517-3.186 17.533 17.533 0 0 1-2.746-3.735c-.708-1.367-1.062-2.918-1.062-4.651 0-1.416.257-2.71.769-3.882a8.938 8.938 0 0 1 2.197-3.04c.953-.854 2.075-1.513 3.37-1.977 1.294-.464 2.71-.696 4.247-.696 2.027 0 3.711.22 5.055.66 1.367.414 2.404.817 3.112 1.208l.366 6.079M44.825 33.542l-.33.146c-1.904-1.758-4.199-3.16-6.884-4.21-2.661-1.05-5.592-1.576-8.79-1.576-3.076 0-5.896.488-8.459 1.465-2.563.953-4.773 2.344-6.628 4.175-1.831 1.831-3.26 4.077-4.285 6.738-1.025 2.661-1.538 5.689-1.538 9.082 0 3.736.488 7.227 1.464 10.474.977 3.223 2.43 6.018 4.358 8.386 1.93 2.368 4.334 4.236 7.215 5.604 2.905 1.342 6.286 2.013 10.143 2.013a20.2 20.2 0 0 0 4.176-.44 20.014 20.014 0 0 0 3.991-1.281 21.205 21.205 0 0 0 3.626-2.087 19.007 19.007 0 0 0 3.113-2.82l.403.256-2.93 7.471c-1.831.708-3.858 1.245-6.08 1.611-2.197.39-4.418.586-6.665.586-4.516 0-8.655-.647-12.414-1.94-3.735-1.319-6.958-3.174-9.668-5.567-2.686-2.392-4.785-5.261-6.299-8.606C.855 59.652.111 55.918.111 51.816c0-2.32.293-4.602.879-6.848a27.697 27.697 0 0 1 2.636-6.409 25.882 25.882 0 0 1 4.248-5.566 27.157 27.157 0 0 1 5.75-4.432c2.173-1.244 4.553-2.209 7.14-2.892 2.613-.708 5.433-1.062 8.46-1.062 4.712 0 9.082.72 13.11 2.16l2.49 6.775"/>
        <path d="M44.825 33.542l-.33.146c-1.904-1.758-4.199-3.16-6.884-4.21-2.661-1.05-5.592-1.576-8.79-1.576-3.076 0-5.896.488-8.459 1.465-2.563.953-4.773 2.344-6.628 4.175-1.831 1.831-3.26 4.077-4.285 6.738-1.025 2.661-1.538 5.689-1.538 9.082 0 3.736.488 7.227 1.464 10.474.977 3.223 2.43 6.018 4.358 8.386 1.93 2.368 4.334 4.236 7.215 5.604 2.905 1.342 6.286 2.013 10.143 2.013a20.2 20.2 0 0 0 4.176-.44 20.014 20.014 0 0 0 3.991-1.281 21.205 21.205 0 0 0 3.626-2.087 19.007 19.007 0 0 0 3.113-2.82l.403.256-2.93 7.471c-1.831.708-3.858 1.245-6.08 1.611-2.197.39-4.418.586-6.665.586-4.516 0-8.655-.647-12.414-1.94-3.735-1.319-6.958-3.174-9.668-5.567-2.686-2.392-4.785-5.261-6.299-8.606C.855 59.652.111 55.918.111 51.816c0-2.32.293-4.602.879-6.848a27.697 27.697 0 0 1 2.636-6.409 25.882 25.882 0 0 1 4.248-5.566 27.157 27.157 0 0 1 5.75-4.432c2.173-1.244 4.553-2.209 7.14-2.892 2.613-.708 5.433-1.062 8.46-1.062 4.712 0 9.082.72 13.11 2.16l2.49 6.775M65.333 77.56L52.442 49.363a35.899 35.899 0 0 0-1.502-3.076 47.013 47.013 0 0 0-1.537-2.674 28.12 28.12 0 0 0-1.246-1.94c-.366-.537-.61-.879-.732-1.026V40.5h9.595v.146a2.16 2.16 0 0 0-.11.55 6.56 6.56 0 0 0-.036.66c-.001.756.109 1.598.329 2.526.243.903.683 2.038 1.318 3.406L68.628 69.76l9.229-21.68c.39-.903.781-1.891 1.172-2.966a8.98 8.98 0 0 0 .623-3.259c0-.317-.025-.573-.074-.77-.049-.219-.097-.365-.146-.439V40.5h6.592v.146c-.44.465-1.002 1.295-1.685 2.491-.659 1.172-1.367 2.649-2.124 4.431L64.746 89.17c-.39.903-.792 1.891-1.208 2.966a9.467 9.467 0 0 0-.586 3.259c0 .318.024.574.074.77.048.219.097.365.146.439v.146h-6.848v-.146c.464-.465 1.025-1.282 1.684-2.454.684-1.148 1.404-2.6 2.161-4.358l5.164-12.231"/>
        <path d="M65.333 77.56L52.442 49.363a35.899 35.899 0 0 0-1.502-3.076 47.013 47.013 0 0 0-1.537-2.674 28.12 28.12 0 0 0-1.246-1.94c-.366-.537-.61-.879-.732-1.026V40.5h9.595v.146a2.16 2.16 0 0 0-.11.55 6.56 6.56 0 0 0-.036.66c-.001.756.109 1.598.329 2.526.243.903.683 2.038 1.318 3.406L68.628 69.76l9.229-21.68c.39-.903.781-1.891 1.172-2.966a8.98 8.98 0 0 0 .623-3.259c0-.317-.025-.573-.074-.77-.049-.219-.097-.365-.146-.439V40.5h6.592v.146c-.44.465-1.002 1.295-1.685 2.491-.659 1.172-1.367 2.649-2.124 4.431L64.746 89.17c-.39.903-.792 1.891-1.208 2.966a9.467 9.467 0 0 0-.586 3.259c0 .318.024.574.074.77.048.219.097.365.146.439v.146h-6.848v-.146c.464-.465 1.025-1.282 1.684-2.454.684-1.148 1.404-2.6 2.161-4.358l5.164-12.231M97.596 42.367a20.08 20.08 0 0 1 4.944-1.867 22.11 22.11 0 0 1 5.383-.66c2.71 0 5.212.465 7.507 1.393 2.32.903 4.321 2.197 6.006 3.881 1.685 1.684 3.003 3.736 3.955 6.152.952 2.418 1.428 5.127 1.428 8.13 0 2.515-.44 4.932-1.318 7.251a17.312 17.312 0 0 1-3.882 6.152c-1.709 1.783-3.845 3.211-6.408 4.285-2.54 1.05-5.494 1.575-8.863 1.575-.39 0-.915-.012-1.574-.037a39.003 39.003 0 0 1-2.124-.146 56.596 56.596 0 0 1-2.491-.293 27.931 27.931 0 0 1-2.564-.476 107.837 107.837 0 0 1-3.552-.878 42.108 42.108 0 0 1-3.369-1.136c.098-.366.183-.977.257-1.831.073-.879.121-1.82.146-2.82a125.075 125.075 0 0 0 .147-5.274V37.571c0-2.076-.037-3.883-.11-5.42a74.273 74.273 0 0 0-.22-4.029c-.073-1.123-.183-2.063-.33-2.82a16.63 16.63 0 0 0-.402-1.904v-.146h8.46v.146a16.776 16.776 0 0 0-.404 1.904 40.237 40.237 0 0 0-.33 2.82 74.273 74.273 0 0 0-.219 4.028 173.873 173.873 0 0 0-.073 5.42v4.797m0 22.816c0 1.977.012 3.613.036 4.907.049 1.293.11 2.331.183 3.113 1.026.78 2.418 1.44 4.175 1.977 1.758.537 3.687.805 5.786.805 1.734 0 3.321-.34 4.761-1.025 1.44-.683 2.674-1.672 3.699-2.966 1.025-1.294 1.819-2.869 2.38-4.724.586-1.856.879-3.955.879-6.299 0-2.637-.244-5.078-.732-7.324-.489-2.27-1.245-4.224-2.27-5.86-1.026-1.66-2.332-2.953-3.92-3.881-1.586-.928-3.478-1.392-5.675-1.392-1.856 0-3.59.378-5.2 1.135a11.164 11.164 0 0 0-4.102 3.297v18.237"/>
        <path d="M97.596 42.367a20.08 20.08 0 0 1 4.944-1.867 22.11 22.11 0 0 1 5.383-.66c2.71 0 5.212.465 7.507 1.393 2.32.903 4.321 2.197 6.006 3.881 1.685 1.684 3.003 3.736 3.955 6.152.952 2.418 1.428 5.127 1.428 8.13 0 2.515-.44 4.932-1.318 7.251a17.312 17.312 0 0 1-3.882 6.152c-1.709 1.783-3.845 3.211-6.408 4.285-2.54 1.05-5.494 1.575-8.863 1.575-.39 0-.915-.012-1.574-.037a39.003 39.003 0 0 1-2.124-.146 56.596 56.596 0 0 1-2.491-.293 27.931 27.931 0 0 1-2.564-.476 107.837 107.837 0 0 1-3.552-.878 42.108 42.108 0 0 1-3.369-1.136c.098-.366.183-.977.257-1.831.073-.879.121-1.82.146-2.82a125.075 125.075 0 0 0 .147-5.274V37.571c0-2.076-.037-3.883-.11-5.42a74.273 74.273 0 0 0-.22-4.029c-.073-1.123-.183-2.063-.33-2.82a16.63 16.63 0 0 0-.402-1.904v-.146h8.46v.146a16.776 16.776 0 0 0-.404 1.904 40.237 40.237 0 0 0-.33 2.82 74.273 74.273 0 0 0-.219 4.028 173.873 173.873 0 0 0-.073 5.42v4.797m0 22.816c0 1.977.012 3.613.036 4.907.049 1.293.11 2.331.183 3.113 1.026.78 2.418 1.44 4.175 1.977 1.758.537 3.687.805 5.786.805 1.734 0 3.321-.34 4.761-1.025 1.44-.683 2.674-1.672 3.699-2.966 1.025-1.294 1.819-2.869 2.38-4.724.586-1.856.879-3.955.879-6.299 0-2.637-.244-5.078-.732-7.324-.489-2.27-1.245-4.224-2.27-5.86-1.026-1.66-2.332-2.953-3.92-3.881-1.586-.928-3.478-1.392-5.675-1.392-1.856 0-3.59.378-5.2 1.135a11.164 11.164 0 0 0-4.102 3.297v18.237M151.429 78.66c-2.71 0-5.25-.428-7.618-1.282-2.368-.855-4.43-2.1-6.188-3.736-1.758-1.66-3.15-3.698-4.175-6.116-1.002-2.441-1.502-5.224-1.502-8.35 0-2.758.465-5.31 1.392-7.653.928-2.368 2.21-4.42 3.846-6.153a17.833 17.833 0 0 1 5.712-4.064c2.197-.977 4.566-1.465 7.104-1.465 2.515 0 4.847.44 6.995 1.318a15.324 15.324 0 0 1 5.566 3.772c1.587 1.636 2.832 3.674 3.736 6.116.928 2.417 1.428 5.176 1.501 8.277a951.992 951.992 0 0 0-16.882-.148c-2.124 0-4.2.013-6.226.037-2.001.025-3.808.062-5.42.11.147 2.54.538 4.834 1.172 6.885.66 2.051 1.55 3.808 2.674 5.274a11.858 11.858 0 0 0 4.138 3.332c1.636.782 3.479 1.172 5.53 1.172a16.13 16.13 0 0 0 3.992-.476c1.269-.342 2.416-.806 3.441-1.392a13.639 13.639 0 0 0 2.748-2.05 13.733 13.733 0 0 0 2.05-2.6l.44.219-2.71 6.518c-1.319.684-2.894 1.27-4.724 1.758-1.832.465-4.028.696-6.592.696m-4.87-22.339h7.323c2.466-.024 4.7-.073 6.702-.147-.22-2.123-.635-4.028-1.245-5.712-.61-1.685-1.392-3.113-2.344-4.285-.952-1.172-2.075-2.075-3.37-2.71-1.293-.634-2.721-.952-4.283-.952-1.417 0-2.723.318-3.919.952-1.172.61-2.197 1.502-3.077 2.674-.879 1.172-1.587 2.612-2.124 4.32-.537 1.685-.854 3.614-.951 5.787 1.099.049 2.258.074 3.478.074h3.81"/>
        <path d="M151.429 78.66c-2.71 0-5.25-.428-7.618-1.282-2.368-.855-4.43-2.1-6.188-3.736-1.758-1.66-3.15-3.698-4.175-6.116-1.002-2.441-1.502-5.224-1.502-8.35 0-2.758.465-5.31 1.392-7.653.928-2.368 2.21-4.42 3.846-6.153a17.833 17.833 0 0 1 5.712-4.064c2.197-.977 4.566-1.465 7.104-1.465 2.515 0 4.847.44 6.995 1.318a15.324 15.324 0 0 1 5.566 3.772c1.587 1.636 2.832 3.674 3.736 6.116.928 2.417 1.428 5.176 1.501 8.277a951.992 951.992 0 0 0-16.882-.148c-2.124 0-4.2.013-6.226.037-2.001.025-3.808.062-5.42.11.147 2.54.538 4.834 1.172 6.885.66 2.051 1.55 3.808 2.674 5.274a11.858 11.858 0 0 0 4.138 3.332c1.636.782 3.479 1.172 5.53 1.172a16.13 16.13 0 0 0 3.992-.476c1.269-.342 2.416-.806 3.441-1.392a13.639 13.639 0 0 0 2.748-2.05 13.733 13.733 0 0 0 2.05-2.6l.44.219-2.71 6.518c-1.319.684-2.894 1.27-4.724 1.758-1.832.465-4.028.696-6.592.696m-4.87-22.339h7.323c2.466-.024 4.7-.073 6.702-.147-.22-2.123-.635-4.028-1.245-5.712-.61-1.685-1.392-3.113-2.344-4.285-.952-1.172-2.075-2.075-3.37-2.71-1.293-.634-2.721-.952-4.283-.952-1.417 0-2.723.318-3.919.952-1.172.61-2.197 1.502-3.077 2.674-.879 1.172-1.587 2.612-2.124 4.32-.537 1.685-.854 3.614-.951 5.787 1.099.049 2.258.074 3.478.074h3.81"/>
    </g>
</svg>
