<svg xmlns="http://www.w3.org/2000/svg" width="10" height="10" viewBox="0 0 10 10">
    <circle cx="4" cy="63" r="4" fill="none" fill-rule="evenodd" stroke="#4A90E2" opacity=".5" transform="translate(1 -58)"/>
</svg>
